TX/RX;Date;Frequency;Mode;My Latitude;My Longitude;My Altitude;RF Power;S Meter;RPT Call Sign;TX Call Sign;RX Call Sign;RX Latitude;RX Longitude;RX Altitude
TX;2000/02/06 13:14:40;7,000000;LSB;51,520000;-2,542333;50,0;5%;;;;;;;
RX;2000/02/06 13:14:42;7,000000;LSB;51,520000;-2,542333;50,0;;S5;;;;;;
TX;2000/02/06 13:34:38;14,074000;USB;51,520000;-2,542333;50,0;5%;;;;;;;
RX;2000/02/06 13:34:41;14,074000;USB;51,520000;-2,542333;50,0;;S4;;;;;;
TX;2000/02/06 13:34:42;14,074000;USB;51,520000;-2,542333;50,0;5%;;;;;;;
RX;2000/02/06 13:34:44;14,074000;USB;51,520000;-2,542333;50,0;;S4;;;;;;
TX;2000/02/06 17:40:15;14,087000;USB;51,520000;-2,542333;50,0;5%;;;;;;;
TX;2000/02/06 17:40:16;14,087000;USB;51,520000;-2,542333;50,0;5%;;;;;;;
RX;2000/02/06 17:40:17;14,087000;USB;51,520000;-2,542333;50,0;;S9;;;;;;
TX;2000/02/06 17:40:21;14,198000;USB;51,520000;-2,542333;50,0;5%;;;;;;;
RX;2000/02/06 17:40:23;14,198000;USB;51,520000;-2,542333;50,0;;S1;;;;;;
TX;2000/02/06 17:40:23;14,198000;USB;51,520000;-2,542333;50,0;5%;;;;;;;
RX;2000/02/06 17:40:24;14,198000;USB;51,520000;-2,542333;50,0;;S2;;;;;;
TX;2000/02/06 17:57:46;14,198000;USB;51,520000;-2,542333;50,0;5%;;;;;;;
RX;2000/02/06 17:57:48;14,198000;USB;51,520000;-2,542333;50,0;;S4;;;;;;
TX;2000/02/06 17:58:01;14,198000;USB;51,520000;-2,542333;50,0;5%;;;;;;;
RX;2000/02/06 17:58:01;14,198000;USB;51,520000;-2,542333;50,0;;S3;;;;;;
TX;2000/02/06 19:43:30;14,198000;USB;51,520000;-2,542333;50,0;5%;;;;;;;
TX;2000/02/06 19:43:31;14,198000;USB;51,520000;-2,542333;50,0;5%;;;;;;;
RX;2000/02/06 19:43:31;14,198000;USB;51,520000;-2,542333;50,0;;S9;;;;;;
TX;2000/02/06 19:43:32;14,198000;USB;51,520000;-2,542333;50,0;5%;;;;;;;
RX;2000/02/06 19:43:33;14,198000;USB;51,520000;-2,542333;50,0;;S3;;;;;;
TX;2000/02/06 19:43:34;14,198000;USB;51,520000;-2,542333;50,0;5%;;;;;;;
TX;2000/02/06 19:43:35;14,198000;USB;51,520000;-2,542333;50,0;5%;;;;;;;
RX;2000/02/06 19:43:35;14,198000;USB;51,520000;-2,542333;50,0;;S0;;;;;;
