TX/RX;Date;Frequency;Mode;My Latitude;My Longitude;My Altitude;RF Power;S Meter;RPT Call Sign;TX Call Sign;RX Call Sign;RX Latitude;RX Longitude;RX Altitude
TX;2019/04/02 18:01:06;430,975000;FM;51,520000;-2,542333;50,0;5%;;;;;;;
RX;2019/04/02 18:01:07;430,975000;FM;51,520000;-2,542333;50,0;;S7;;;;;;
TX;2019/04/02 18:01:11;430,975000;FM;51,520000;-2,542333;50,0;5%;;;;;;;
RX;2019/04/02 18:01:11;430,975000;FM;51,520000;-2,542333;50,0;;S8;;;;;;
TX;2019/04/02 18:01:12;430,975000;FM;51,520000;-2,542333;50,0;5%;;;;;;;
RX;2019/04/02 18:01:13;430,975000;FM;51,520000;-2,542333;50,0;;S8;;;;;;
TX;2019/04/02 18:01:17;430,975000;FM;51,520000;-2,542333;50,0;5%;;;;;;;
TX;2019/04/02 18:01:22;430,975000;FM;51,520000;-2,542333;50,0;14%;;;;;;;
RX;2019/04/02 18:01:23;430,975000;FM;51,520000;-2,542333;50,0;;S8;;;;;;
TX;2019/04/02 18:01:37;430,975000;FM;51,520000;-2,542333;50,0;14%;;;;;;;
RX;2019/04/02 18:01:37;430,975000;FM;51,520000;-2,542333;50,0;;S5;;;;;;
TX;2019/04/02 18:01:48;430,975000;FM;51,520000;-2,542333;50,0;14%;;;;;;;
RX;2019/04/02 18:01:48;430,975000;FM;51,520000;-2,542333;50,0;;S5;;;;;;
TX;2019/04/02 18:02:02;430,975000;FM;51,520000;-2,542333;50,0;14%;;;;;;;
RX;2019/04/02 18:02:03;430,975000;FM;51,520000;-2,542333;50,0;;S7;;;;;;
TX;2019/04/02 18:02:04;430,975000;FM;51,520000;-2,542333;50,0;14%;;;;;;;
TX;2019/04/02 18:02:05;430,975000;FM;51,520000;-2,542333;50,0;14%;;;;;;;
RX;2019/04/02 18:02:06;430,975000;FM;51,520000;-2,542333;50,0;;S7;;;;;;
TX;2019/04/02 18:02:07;430,975000;FM;51,520000;-2,542333;50,0;16%;;;;;;;
RX;2019/04/02 18:02:09;430,975000;FM;51,520000;-2,542333;50,0;;S7;;;;;;
TX;2019/04/02 18:02:26;430,975000;FM;51,520000;-2,542333;50,0;23%;;;;;;;
RX;2019/04/02 18:02:27;430,975000;FM;51,520000;-2,542333;50,0;;S7;;;;;;
TX;2019/04/02 18:02:54;430,975000;FM;51,520000;-2,542333;50,0;23%;;;;;;;
RX;2019/04/02 18:02:55;430,975000;FM;51,520000;-2,542333;50,0;;S7;;;;;;
TX;2019/04/02 18:02:56;430,975000;FM;51,520000;-2,542333;50,0;23%;;;;;;;
RX;2019/04/02 18:03:00;430,975000;FM;51,520000;-2,542333;50,0;;S7;;;;;;
TX;2019/04/02 18:03:22;430,975000;FM;51,520000;-2,542333;50,0;41%;;;;;;;
RX;2019/04/02 18:03:22;430,975000;FM;51,520000;-2,542333;50,0;;S7;;;;;;
TX;2019/04/02 18:03:56;430,975000;FM;51,520000;-2,542333;50,0;41%;;;;;;;
TX;2019/04/02 18:04:17;430,975000;FM;51,520000;-2,542333;50,0;41%;;;;;;;
TX;2019/04/02 18:04:17;430,975000;FM;51,520000;-2,542333;50,0;41%;;;;;;;
RX;2019/04/02 18:04:18;430,975000;FM;51,520000;-2,542333;50,0;;S6;;;;;;
TX;2019/04/02 18:04:40;430,975000;FM;51,520000;-2,542333;50,0;41%;;;;;;;
RX;2019/04/02 18:04:41;430,975000;FM;51,520000;-2,542333;50,0;;S8;;;;;;
TX;2019/04/02 18:04:43;430,975000;FM;51,520000;-2,542333;50,0;41%;;;;;;;
RX;2019/04/02 18:04:46;430,975000;FM;51,520000;-2,542333;50,0;;S8;;;;;;
TX;2019/04/02 18:04:50;430,975000;FM;51,520000;-2,542333;50,0;50%;;;;;;;
RX;2019/04/02 18:04:54;430,975000;FM;51,520000;-2,542333;50,0;;S8;;;;;;
TX;2019/04/02 18:04:54;430,975000;FM;51,520000;-2,542333;50,0;13%;;;;;;;
RX;2019/04/02 18:04:57;430,975000;FM;51,520000;-2,542333;50,0;;S8;;;;;;
TX;2019/04/02 18:05:03;430,975000;FM;51,520000;-2,542333;50,0;5%;;;;;;;
RX;2019/04/02 18:05:03;430,975000;FM;51,520000;-2,542333;50,0;;S8;;;;;;
TX;2019/04/02 18:05:52;430,975000;FM;51,520000;-2,542333;50,0;5%;;;;;;;
RX;2019/04/02 18:05:53;430,975000;FM;51,520000;-2,542333;50,0;;S8;;;;;;
TX;2019/04/02 18:06:04;430,975000;FM;51,520000;-2,542333;50,0;53%;;;;;;;
RX;2019/04/02 18:06:04;430,975000;FM;51,520000;-2,542333;50,0;;S8;;;;;;
TX;2019/04/02 18:06:08;430,975000;FM;51,520000;-2,542333;50,0;53%;;;;;;;
RX;2019/04/02 18:06:08;430,975000;FM;51,520000;-2,542333;50,0;;S8;;;;;;
TX;2019/04/02 18:06:10;430,975000;FM;51,520000;-2,542333;50,0;53%;;;;;;;
RX;2019/04/02 18:06:12;430,975000;FM;51,520000;-2,542333;50,0;;S9;;;;;;
TX;2019/04/02 18:06:14;430,975000;FM;51,520000;-2,542333;50,0;53%;;;;;;;
RX;2019/04/02 18:06:15;430,975000;FM;51,520000;-2,542333;50,0;;S9;;;;;;
TX;2019/04/02 18:06:18;430,975000;FM;51,520000;-2,542333;50,0;53%;;;;;;;
RX;2019/04/02 18:06:18;430,975000;FM;51,520000;-2,542333;50,0;;S9;;;;;;
TX;2019/04/02 18:06:19;430,975000;FM;51,520000;-2,542333;50,0;53%;;;;;;;
TX;2019/04/02 18:06:20;430,975000;FM;51,520000;-2,542333;50,0;53%;;;;;;;
RX;2019/04/02 18:06:21;430,975000;FM;51,520000;-2,542333;50,0;;S9;;;;;;
TX;2019/04/02 18:06:21;430,975000;FM;51,520000;-2,542333;50,0;53%;;;;;;;
RX;2019/04/02 18:06:22;430,975000;FM;51,520000;-2,542333;50,0;;S9;;;;;;
TX;2019/04/02 18:07:02;433,000000;FM;51,520000;-2,542333;50,0;53%;;;;;;;
TX;2019/04/02 18:07:05;433,000000;FM;51,520000;-2,542333;50,0;53%;;;;;;;
TX;2019/04/02 18:07:07;433,000000;FM;51,520000;-2,542333;50,0;53%;;;;;;;
TX;2019/04/02 18:07:55;430,975000;FM;51,520000;-2,542333;50,0;53%;;;;;;;
TX;2019/04/02 18:08:03;430,975000;FM;51,520000;-2,542333;50,0;53%;;;;;;;
TX;2019/04/02 18:08:27;430,975000;FM;51,520000;-2,542333;50,0;5%;;;;;;;
TX;2019/04/02 18:08:35;430,975000;FM;51,520000;-2,542333;50,0;5%;;;;;;;
TX;2019/04/02 18:08:36;430,975000;FM;51,520000;-2,542333;50,0;5%;;;;;;;
RX;2019/04/02 18:08:37;430,975000;FM;51,520000;-2,542333;50,0;;S9;;;;;;
TX;2019/04/02 18:08:43;430,975000;FM;51,520000;-2,542333;50,0;5%;;;;;;;
RX;2019/04/02 18:08:43;430,975000;FM;51,520000;-2,542333;50,0;;S9;;;;;;
