TX/RX;Date;Frequency;Mode;My Latitude;My Longitude;My Altitude;RF Power;S Meter;RPT Call Sign;TX Call Sign;RX Call Sign;RX Latitude;RX Longitude;RX Altitude
TX;2019/08/31 13:35:24;430,975000;FM;51,520000;-2,542333;50,0;5%;;;;;;;
RX;2019/08/31 13:35:27;430,975000;FM;51,520000;-2,542333;50,0;;S9+30;;;;;;
TX;2019/08/31 17:37:42;430,850000;FM;51,520000;-2,542333;50,0;5%;;;;;;;
RX;2019/08/31 17:37:47;430,850000;FM;51,520000;-2,542333;50,0;;S9+10;;;;;;
TX;2019/08/31 17:38:07;430,850000;FM;51,520000;-2,542333;50,0;5%;;;;;;;
RX;2019/08/31 17:38:34;430,850000;FM;51,520000;-2,542333;50,0;;S9+10;;;;;;
TX;2019/08/31 17:38:52;430,850000;FM;51,520000;-2,542333;50,0;5%;;;;;;;
RX;2019/08/31 17:38:57;430,850000;FM;51,520000;-2,542333;50,0;;S9+10;;;;;;
TX;2019/08/31 17:39:22;430,850000;FM;51,520000;-2,542333;50,0;5%;;;;;;;
RX;2019/08/31 17:39:46;430,850000;FM;51,520000;-2,542333;50,0;;S9+10;;;;;;
TX;2019/08/31 17:40:20;430,850000;FM;51,520000;-2,542333;50,0;5%;;;;;;;
RX;2019/08/31 17:40:29;430,850000;FM;51,520000;-2,542333;50,0;;S9+10;;;;;;
TX;2019/09/07 22:27:34;438,600000;DV;51,520000;-2,542333;50,0;5%;;2E0PGS B;       I;;;;
RX;2019/09/07 22:27:37;438,600000;DV;51,520000;-2,542333;50,0;;S9+20;2E0PGS B;;2E0PGS B;;;
RX;2019/09/07 22:27:39;438,600000;DV;51,520000;-2,542333;50,0;;S9+20;2E0PGS B;;2E0PGS;;;
TX;2019/09/13 17:33:06;438,300000;DV;51,520000;-2,542333;50,0;5%;;;CQCQCQ;;;;
TX;2019/09/13 17:33:12;438,500000;DV;51,520000;-2,542333;50,0;5%;;;CQCQCQ;;;;
TX;2019/09/13 17:33:16;438,600000;DV;51,520000;-2,542333;50,0;5%;;;CQCQCQ;;;;
RX;2019/09/13 17:33:19;438,600000;DV;51,520000;-2,542333;50,0;;S9+20;2E0PGS B;;2E0PGS B;;;
TX;2019/09/13 17:33:22;438,600000;DV;51,520000;-2,542333;50,0;5%;;;CQCQCQ;;;;
RX;2019/09/13 17:33:24;438,600000;DV;51,520000;-2,542333;50,0;;S9+10;2E0PGS B;;2E0PGS B;;;
TX;2019/09/13 17:33:27;438,600000;DV;51,520000;-2,542333;50,0;5%;;;CQCQCQ;;;;
RX;2019/09/13 17:33:29;438,600000;DV;51,520000;-2,542333;50,0;;S9+10;2E0PGS B;;2E0PGS B;;;
TX;2019/09/13 17:33:34;438,400000;DV;51,520000;-2,542333;50,0;5%;;;CQCQCQ;;;;
RX;2019/09/13 17:33:36;438,400000;DV;51,520000;-2,542333;50,0;;S5;M3PGS  B;;M3PGS  B;;;
TX;2019/09/13 17:33:42;438,400000;DV;51,520000;-2,542333;50,0;5%;;;CQCQCQ;;;;
RX;2019/09/13 17:33:44;438,400000;DV;51,520000;-2,542333;50,0;;S4;M3PGS  B;;M3PGS  B;;;
